{
  "code": 200,
  "content": {
    "data": [
      {
        "id": 7053,
        "title": "Ridwan Kamil Perkuat Forum Kerukunan Umat Beragama Kota Depok",
        "excerpt": "\nPORTALJABAR, KOTA DEPOK - Gubernur Jawa Barat Ridwan Kamil melakukan pertemuan dengan sejumlah tokoh lintas agama Kota Depok yang tergabung dalam Forum Kerukur",
        "slug": "ridwan-kamil-perkuat-forum-kerukunan-umat-beragama-kota-depok-7053",
        "image": "https://dvgddkosknh6r.cloudfront.net/live/media/img/1664432941-WhatsApp-Image-2022-09-28-at-20.46.33.jpeg",
        "category": "sosial",
        "author": "Rilis Humas Jabar;Rep No",
        "reporter": "Rilis Humas Jabar;Rep No",
        "editor": "Admin",
        "video": null,
        "source": "",
        "tags": [],
        "status": "PUBLISHED",
        "is_live": 1,
        "created_by": {
          "name": "Group Admin Diskom",
          "unit_name": "Dinas Komunikasi dan Informatika Provinsi Jawa Barat"
        },
        "published_at": "2022-09-29T06:30:43Z",
        "created_at": "2022-09-29T06:29:01Z",
        "updated_at": "2022-09-29T06:30:43Z"
      },
      {
        "id": 7042,
        "title": "Kecamatan Cileungsi Juara MTQ Ke-44 Kabupaten Bogor",
        "excerpt": "\nPORTALJABAR, KAB. BOGOR - Sekretaris Daerah (Sekda) Kabupaten Bogor, Burhanudin menutup Musabaqah Tilawatil Quran (MTQ) ke-44 tingkat Kabupaten Bogor Tahun 202",
        "slug": "kecamatan-cileungsi-juara-mtq-ke-44-kabupaten-bogor-7042",
        "image": "https://dvgddkosknh6r.cloudfront.net/live/media/img/1664413038-IMG-20220929-WA0011.jpg",
        "category": "sosial",
        "author": "Diskominfo Kabupaten Bogor",
        "reporter": "Diskominfo Kabupaten Bogor",
        "editor": "Rdp",
        "video": null,
        "source": "",
        "tags": [],
        "status": "PUBLISHED",
        "is_live": 1,
        "created_by": {
          "name": "Group Admin Diskom",
          "unit_name": "Dinas Komunikasi dan Informatika Provinsi Jawa Barat"
        },
        "published_at": "2022-09-29T01:44:52Z",
        "created_at": "2022-09-29T00:57:18Z",
        "updated_at": "2022-09-29T01:44:52Z"
      },
      {
        "id": 7045,
        "title": "Wabup Garut : Hanya Sekitar 1 % Masyarakat Garut yang Mendonorkan Darahnya",
        "excerpt": "\nPORTALJABAR, KAB. GARUT - Wakil Bupati Garut dr. Helmi Budiman mengungkapkan, masyarakat pendonor darah di Kabupaten Garut terbilang masih sedikit, sekitar 20.",
        "slug": "wabup-garut-hanya-sekitar-1-masyarakat-garut-yang-mendonorkan-darahnya-7045",
        "image": "https://dvgddkosknh6r.cloudfront.net/live/media/img/1664414261-IMG-20220928-WA0205.jpg",
        "category": "sosial",
        "author": "Rilis Humas Pemdakab Garut",
        "reporter": "Rilis Humas Pemdakab Garut",
        "editor": "Rdp",
        "video": null,
        "source": "",
        "tags": [],
        "status": "PUBLISHED",
        "is_live": 1,
        "created_by": {
          "name": "Group Admin Diskom",
          "unit_name": "Dinas Komunikasi dan Informatika Provinsi Jawa Barat"
        },
        "published_at": "2022-09-29T01:44:45Z",
        "created_at": "2022-09-29T01:17:41Z",
        "updated_at": "2022-09-29T01:44:45Z"
      },
      {
        "id": 7038,
        "title": "Tabligh Akbar Sarana Memperkuat Sinergitas dan Kolaborasi Menjaga Kondusivitas Kabupaten Bogor\n",
        "excerpt": "\nPORTALJABAR, KAB. BOGOR - Pemerintah Daerah Kabupaten (Pemdakab) Bogor menggelar kegiatan Tabligh Akbar dalam rangka memperingati Maulid Nabi Muhammad SAW 1444",
        "slug": "tabligh-akbar-sarana-memperkuat-sinergitas-dan-kolaborasi-menjaga-kondusivitas-kabupaten-7038",
        "image": "https://dvgddkosknh6r.cloudfront.net/live/media/img/1664278784-IMG-20220927-WA0012.jpg",
        "category": "sosial",
        "author": "Diskominfo Kabupaten Bogor",
        "reporter": "Diskominfo Kabupaten Bogor",
        "editor": "UPI",
        "video": null,
        "source": "",
        "tags": [],
        "status": "PUBLISHED",
        "is_live": 1,
        "created_by": {
          "name": "Group Admin Diskom",
          "unit_name": "Dinas Komunikasi dan Informatika Provinsi Jawa Barat"
        },
        "published_at": "2022-09-27T13:21:20Z",
        "created_at": "2022-09-27T11:39:45Z",
        "updated_at": "2022-09-27T13:21:20Z"
      },
      {
        "id": 7037,
        "title": "Gelar Workshop dan Evaluasi, Pemdakab Bogor Sinergi Lakukan Perlindungan dan Hak Anak.\n",
        "excerpt": "\nPORTALJABAR, KAB. BOGOR - Pemerintah Daerah Kabupaten (Pemdakab) Bogor melalui Dinas Pemberdayaan Perempuan, Perlindungan Anak, Pengendalian Penduduk dan Kelua",
        "slug": "gelar-workshop-dan-evaluasi-pemdakab-bogor-sinergi-lakukan-perlindungan-dan-hak-anak-7037",
        "image": "https://dvgddkosknh6r.cloudfront.net/live/media/img/1664278580-IMG-20220926-WA0051.jpg",
        "category": "sosial",
        "author": "Diskominfo Kabupaten Bogor",
        "reporter": "Diskominfo Kabupaten Bogor",
        "editor": "UPI",
        "video": null,
        "source": "",
        "tags": [],
        "status": "PUBLISHED",
        "is_live": 1,
        "created_by": {
          "name": "Group Admin Diskom",
          "unit_name": "Dinas Komunikasi dan Informatika Provinsi Jawa Barat"
        },
        "published_at": "2022-09-27T13:21:16Z",
        "created_at": "2022-09-27T11:36:20Z",
        "updated_at": "2022-09-27T13:21:16Z"
      }
    ],
    "meta": {
      "total_count": 1084,
      "total_page": 217,
      "current_page": 1,
      "per_page": 5
    }
  },
  "message": ""
}